A Quantified Kraljic Matrix
…
kraljic_matrix
Plots each product or service in the Kraljic purchasing matrix based on the attribute value score of x and y.

get_frontier
Identifies and extracts the observations that have the Pareto optimal combination of x and y.

geom_frontier
Plots the Pareto optimal front in a ggplot2 object.

Furthermore, an example dataset psc is provided in the kraljicMatrix package. This data contains 200 product and service contracts (PSC). Each PSC has an x attribute (i.e. supply risk) score from 1 (worst) to 5 (best) and y attribute (i.e. profit impact) score from 1 (worst) to 10 (best).

psc
## # A tibble: 200 × 3
##      PSC x_attribute y_attribute
##    <chr>       <int>       <int>
## 1   D233        3.01        4.84
## 2   F352        4.34        5.64
## 3   T713        3.37        4.30
## 4   K833        2.67        5.53
## 5   Q121        3.48        4.33
## 6   C791        3.32        7.32
## 7   Y207        3.48        5.42
## 8   W439        2.47        3.35
## 9   N290        1.66        4.02
## 10  C251        1.00        7.47
## # ... with 190 more rows
…
Once we’ve identified the preferred \(\rho\) value, we can now apply the exponential SAVF with SAVF_score to normalize our attributes based on our utility curve.

# using dplyr to add a new variable while preserving existing data
library(dplyr)

# here we are assuming we found the appropriate rho value for the y attribute using
# the same process as mentioned above
psc <- psc %>%
  mutate(x_SAVF_score = SAVF_score(x_attribute, 1, 5, .653),
         y_SAVF_score = SAVF_score(y_attribute, 1, 10, .70))

psc
## # A tibble: 200 x 5
##    PSC   x_attribute y_attribute x_SAVF_score y_SAVF_score
##    <chr>       <dbl>       <dbl>        <dbl>        <dbl>
##  1 D233         3.01        4.84        0.789        0.934
##  2 F352         4.34        5.64        0.957        0.963
##  3 T713         3.37        4.30        0.850        0.902
##  4 K833         2.67        5.53        0.717        0.960
##  5 Q121         3.48        4.33        0.866        0.904
##  6 C791         3.32        7.32        0.842        0.990
##  7 Y207         3.48        5.42        0.866        0.956
##  8 W439         2.47        3.35        0.666        0.808
##  9 N290         1.66        4.02        0.378        0.881
## 10 C251         1.00        7.47        0            0.991
## # ... with 190 more rows
…
This illustrates that most of our PSCs fall in the “Leverage” (upper left) quadrant while a few fall in the “Strategic” (upper right) and “Non-critical” (lower left) quadrants and no PSCs fall in the “Bottleneck” quadrant. Keep in mind that each category benefits from a different strategic sourcing approach. So decision-makers benefit from understanding specifically which products and services align to each so that they can coordinate the appropriate sourcing strategy for that particular product or service. We can easily do this with the kraljic_quadrant function.

psc %>%
  mutate(quadrant = kraljic_quadrant(x_SAVF_score, y_SAVF_score))
## # A tibble: 200 x 6
##    PSC   x_attribute y_attribute x_SAVF_score y_SAVF_score quadrant 
##    <chr>       <dbl>       <dbl>        <dbl>        <dbl> <chr>    
##  1 D233         3.01        4.84        0.789        0.934 Leverage 
##  2 F352         4.34        5.64        0.957        0.963 Leverage 
##  3 T713         3.37        4.30        0.850        0.902 Leverage 
##  4 K833         2.67        5.53        0.717        0.960 Leverage 
##  5 Q121         3.48        4.33        0.866        0.904 Leverage 
##  6 C791         3.32        7.32        0.842        0.990 Leverage 
##  7 Y207         3.48        5.42        0.866        0.956 Leverage 
##  8 W439         2.47        3.35        0.666        0.808 Leverage 
##  9 N290         1.66        4.02        0.378        0.881 Strategic
## 10 C251         1.00        7.47        0            0.991 Strategic
## # ... with 190 more rows

Lastly, it is important to keep in mind that decision-makers may weight the importance of each attribute differently. Consequently, due to certain market environments, decision-makers may weight the x attribute (i.e. supply risk) of greater importance than the y attribute (i.e. profit impact). Thus, we can prioritize PSCs based on this preference by applying a multi-attribute value function (MAVF) with swing weights. Swing weight values for x and y attributes (\(w_x\) and \(w_y\) respectively) are typically elicited from SMEs. This allows for calculation of the interaction swing weight \(w_{xy} = 1 - w_x - w_y\). Thus, we can calculate the MAVF as outlined by Keeney and Raiffa (1993)3:

\[V(x,y) = w_x v_x (x) + w_y v_y (y) + w_{xy} v_x (x) v_y (y)\]

Thus, we can apply the MAVF_score function to compute the multi-attribute value score based on x and y attribute utility scores and their respective swing weights. So if through discussions with decision-makers we identify swing weight values of 0.65 and 0.35 for the x and y attributes respectively, we can obtain the computed MAVF score for each PSC:

psc %>%
  mutate(MAVF = MAVF_score(x_SAVF_score, y_SAVF_score, 0.65, 0.35))
## # A tibble: 200 x 6
##    PSC   x_attribute y_attribute x_SAVF_score y_SAVF_score  MAVF
##    <chr>       <dbl>       <dbl>        <dbl>        <dbl> <dbl>
##  1 D233         3.01        4.84        0.789        0.934 0.839
##  2 F352         4.34        5.64        0.957        0.963 0.959
##  3 T713         3.37        4.30        0.850        0.902 0.868
##  4 K833         2.67        5.53        0.717        0.960 0.802
##  5 Q121         3.48        4.33        0.866        0.904 0.879
##  6 C791         3.32        7.32        0.842        0.990 0.894
##  7 Y207         3.48        5.42        0.866        0.956 0.897
##  8 W439         2.47        3.35        0.666        0.808 0.716
##  9 N290         1.66        4.02        0.378        0.881 0.554
## 10 C251         1.00        7.47        0            0.991 0.347
## # ... with 190 more rows
…
And finally, since our swing weight inputs are subjective in nature we may wish to perform a senstivity analysis on these swing weights to see their impact on MAVF scores. The MAVF_sensitivity function executes a sensitivity analysis by performing a Monte Carlo simulation with 1000 trials for each product or service (row). Each trial randomly selects a weight from a uniform distribution between lower and upper bound swing weight parameters and calculates the mult-attribute utility score. From these trials, summary statistics for each product or service (row) are calculated and reported for the final output.

MAVF_sensitivity(psc,
                 x = x_SAVF_score,
                 y = y_SAVF_score,
                 x_wt_min = .55,
                 x_wt_max = .75,
                 y_wt_min = .25,
                 y_wt_max = .45) %>%
  select(PSC, starts_with("MAVF"))
## # A tibble: 200 x 8
##    PSC   MAVF_Min MAVF_1st_Q MAVF_Median MAVF_Mean MAVF_3rd_Q MAVF_Max
##    <chr>    <dbl>      <dbl>       <dbl>     <dbl>      <dbl>    <dbl>
##  1 D233     0.815      0.830       0.839     0.839      0.850    0.864
##  2 F352     0.952      0.957       0.959     0.959      0.961    0.967
##  3 T713     0.847      0.861       0.868     0.868      0.875    0.889
##  4 K833     0.772      0.788       0.801     0.802      0.816    0.831
##  5 Q121     0.860      0.873       0.879     0.879      0.885    0.899
##  6 C791     0.878      0.886       0.893     0.894      0.902    0.910
##  7 Y207     0.881      0.891       0.897     0.897      0.904    0.913
##  8 W439     0.678      0.702       0.716     0.716      0.729    0.754
##  9 N290     0.496      0.525       0.552     0.554      0.582    0.612
## 10 C251     0.248      0.296       0.344     0.347      0.399    0.446
## # ... with 190 more rows, and 1 more variable: MAVF_Range <dbl>
…
